1290	1885
1295	1883
1300	1882
1305	1882
1310	1882
1315	1882
1320	1883
1325	1884
1330	1885
1335	1886
1340	1887
1345	1888
1350	1889
1355	1890
1360	1892
1365	1893
1370	1895
1375	1896
1380	1898
1385	1901
1388	1903
1393	1902
1398	1902
1403	1904
1408	1905
1413	1906
1418	1907
1423	1907
1428	1908
1433	1909
1438	1909
1443	1909
1448	1909
1453	1909
1458	1909
1463	1909
1468	1908
1473	1907
1478	1906
1483	1905
1488	1903
1493	1902
1498	1900
1503	1898
1508	1899
1513	1895
1518	1892
1523	1891
1528	1889
1533	1887
1538	1886
1543	1885
1548	1885
1553	1885
1558	1885
1563	1887
1568	1889
1573	1890
1578	1892
1583	1893
1588	1894
1593	1896
1598	1898
1603	1900
1608	1901
1613	1903
1618	1904
1623	1906
1628	1907
1633	1909
1638	1911
1643	1913
1648	1915
1653	1916
1658	1918
1663	1920
1668	1922
1673	1924
1678	1926
1682	1929
1684	1931
1689	1930
1694	1931
1699	1933
1704	1935
1709	1936
1714	1939
1719	1941
1724	1943
1729	1945
1734	1947
1739	1950
1744	1952
1749	1954
1754	1956
1759	1958
1764	1960
1769	1962
1774	1965
1779	1967
1784	1969
1789	1971
1794	1974
1799	1976
1804	1978
1809	1981
1814	1984
1819	1987
1824	1991
1829	1991
1834	1992
1839	1994
1844	1997
1849	1999
1854	2002
1859	2004
1864	2006
1869	2008
1874	2011
1879	2013
1884	2016
1889	2020
1894	2025
1942	2067
1947	2068
1952	2071
1957	2075
1962	2079
1967	2083
1972	2087
1977	2091
1982	2095
1987	2100
1992	2105
1996	2109
1998	2111
2003	2116
2008	2121
2013	2126
2018	2131
2023	2136
2028	2141
2033	2145
2038	2149
2043	2154
2048	2159
2053	2164
2058	2169
2063	2174
2068	2179
2073	2184
2078	2189
2083	2194
2088	2199
2093	2204
2098	2209
2103	2214
2108	2215
2113	2215
2118	2217
2122	2221
2124	2223
2129	2228
2133	2233
2137	2238
2142	2243
2146	2248
2151	2253
2155	2258
2159	2263
2164	2268
2167	2273
2171	2278
2175	2283
2179	2288
2183	2293
2187	2298
2191	2303
2195	2308
2199	2313
2202	2318
2206	2323
2210	2328
2213	2333
2216	2338
2220	2343
2223	2348
2226	2353
2229	2358
2233	2363
2237	2368
2240	2373
2244	2378
2246	2383
2248	2388
2248	2393
2248	2397
2253	2402
2258	2407
2262	2412
2265	2417
2268	2422
2271	2427
2273	2432
2276	2437
2278	2442
2280	2447
2282	2452
2285	2457
2288	2462
2289	2467
2291	2472
2294	2477
2296	2482
2298	2487
2301	2492
2303	2497
2304	2502
2306	2507
2309	2512
2311	2517
2311	2522
2313	2527
2315	2532
2316	2537
2317	2542
2319	2547
2320	2552
2320	2557
2320	2562
2320	2565
2324	2570
2327	2575
2328	2580
2329	2585
2330	2590
2331	2595
2333	2600
2334	2605
2335	2610
2336	2615
2337	2620
2338	2625
2339	2630
2340	2635
2341	2640
2343	2645
2344	2650
2345	2655
2345	2660
2346	2665
2347	2670
2347	2675
2348	2680
2349	2685
2349	2690
2350	2695
2351	2700
2352	2705
2352	2710
2352	2715
2352	2720
2352	2725
2352	2730
2352	2735
2352	2740
2352	2745
2352	2750
2351	2755
2348	2759
2351	2764
2352	2769
2352	2774
2352	2779
2352	2784
2351	2789
2350	2794
2349	2799
2348	2804
2347	2809
2347	2814
2346	2819
2345	2824
2343	2829
2341	2834
2340	2839
2338	2844
2337	2849
2335	2854
2332	2859
2327	2864
2322	2869
2317	2874
2313	2879
2310	2884
2307	2889
2304	2894
2301	2899
2299	2904
2295	2909
2291	2914
2288	2919
2283	2924
2279	2929
2275	2934
2272	2939
2272	2943
2272	2945
2267	2945
2262	2949
2257	2954
2252	2959
2247	2964
2242	2969
2237	2973
2232	2978
2227	2982
2222	2986
2217	2991
2212	2995
2207	2999
2202	3002
2197	3006
2192	3010
2187	3015
2182	3020
2177	3025
2172	3029
2168	3033
2163	3033
2158	3035
2153	3038
2148	3042
2143	3045
2138	3049
2133	3052
2128	3055
2123	3059
2118	3062
2113	3065
2108	3069
2103	3072
2098	3076
2093	3079
2088	3082
2083	3085
2078	3089
2073	3092
2068	3096
2063	3099
2058	3102
2053	3106
2048	3109
2043	3113
2038	3116
2033	3119
2028	3122
2023	3126
2018	3131
2014	3135
2009	3135
2004	3137
1999	3139
1994	3142
1989	3146
1984	3149
1979	3152
1974	3154
1969	3157
1964	3161
1959	3164
1954	3167
1949	3170
1944	3172
1939	3176
1934	3178
1929	3181
1924	3184
1919	3186
1914	3189
1909	3191
1904	3194
1899	3198
1894	3201
1889	3202
1884	3205
1879	3208
1874	3211
1869	3213
1864	3215
1859	3217
1854	3219
1849	3221
1844	3223
1839	3225
1834	3228
1829	3230
1824	3232
1819	3234
1814	3236
1809	3237
1804	3239
1799	3241
1794	3244
1789	3245
1784	3246
1779	3248
1774	3250
1770	3253
1765	3258
1760	3262
1755	3263
1750	3264
1745	3266
1740	3267
1735	3268
1730	3270
1725	3271
1720	3272
1715	3273
1710	3274
1705	3275
1700	3275
1695	3276
1690	3277
1685	3277
1680	3278
1675	3279
1670	3279
1665	3280
1660	3280
1655	3280
1650	3281
1645	3281
1640	3281
1635	3281
1630	3281
1625	3281
1620	3281
1615	3281
1610	3281
1605	3281
1600	3280
1595	3280
1590	3280
1585	3280
1580	3279
1575	3279
1570	3278
1565	3278
1560	3278
1556	3277
1554	3277
1549	3277
1544	3277
1539	3276
1534	3275
1529	3275
1524	3274
1519	3274
1514	3273
1509	3273
1504	3272
1499	3271
1494	3270
1489	3269
1484	3268
1479	3267
1474	3267
1469	3265
1464	3264
1459	3263
1454	3262
1449	3260
1444	3259
1439	3257
1434	3256
1429	3254
1424	3252
1419	3250
1414	3248
1409	3245
1404	3243
1399	3240
1394	3236
1389	3233
1384	3230
1380	3229
1378	3224
1374	3219
1370	3214
1367	3209
1364	3204
1362	3199
1360	3194
1359	3189
1358	3184
1357	3179
1356	3174
1356	3169
1356	3164
1355	3159
1354	3154
1354	3149
1353	3144
1353	3139
1353	3134
1352	3129
1352	3124
1352	3119
1352	3114
1352	3109
1352	3104
1352	3099
1352	3094
1352	3089
1352	3084
1352	3079
1352	3074
1352	3069
1352	3064
1353	3059
1356	3055
1352	3050
1351	3045
1350	3040
1350	3035
1350	3030
1349	3025
1349	3020
1349	3015
1349	3010
1348	3005
1348	3000
1348	2995
1348	2990
1347	2985
1347	2980
1347	2975
1349	2970
1352	2965
1353	2960
1353	2955
1352	2950
1350	2945
1350	2940
1349	2935
1348	2930
1347	2925
1345	2920
1344	2915
1341	2910
1336	2905
1322	2903
1308	2903
1300	2903
