 4.0684e+00   1.1068e+00   2.8183e+01
 2.7167e+00   1.9648e+00   2.8282e+01
 4.7274e+00  -2.3979e-01   2.8117e+01
 4.4719e+00   3.3672e-01   2.7856e+01
 4.2404e+00   8.7140e-01   2.8040e+01
 8.4504e-01   2.1325e+00   2.7694e+01
 1.2795e+00   2.1451e+00   2.7770e+01
 2.0821e+00   2.1461e+00   2.7701e+01
 4.2117e+00   5.6770e-01   2.7460e+01
 3.5396e+00   1.5480e+00   2.7926e+01
 3.1105e+00   1.8150e+00   2.7982e+01
-3.0855e+00   2.1441e+00   2.7201e+01
 5.2557e-01   2.1127e+00   2.7489e+01
 4.7933e+00  -8.0481e-01   2.7602e+01
 4.6628e+00  -8.0441e-01   2.7353e+01
-3.5625e-02   2.0350e+00   2.7458e+01
-2.3321e+00   2.3019e+00   2.7100e+01
-2.7612e+00   2.2565e+00   2.7135e+01
-1.0597e+00   2.1549e+00   2.7172e+01
-7.3532e-01   2.0764e+00   2.7597e+01
 4.5781e+00  -1.4912e+00   2.6773e+01
-1.8914e+00   2.2872e+00   2.7054e+01
-4.9017e+00  -2.6225e-01   2.6606e+01
-3.7106e+00   1.7596e+00   2.6807e+01
-3.3574e+00   2.0628e+00   2.6823e+01
 4.4606e+00  -1.9273e+00   2.6349e+01
-4.8242e+00   1.4279e-01   2.6143e+01
-4.7414e+00   5.0490e-01   2.6096e+01
-4.6381e+00   6.7960e-01   2.6296e+01
-4.3643e+00   1.1026e+00   2.6377e+01
-3.5701e+00  -2.9696e+00   2.5890e+01
 4.2904e+00  -2.1450e+00   2.6096e+01
 4.0756e+00  -2.3142e+00   2.5927e+01
-4.5854e+00  -1.3533e+00   2.5907e+01
-4.7667e+00  -8.3045e-01   2.5986e+01
-4.8765e+00  -3.8603e-01   2.6235e+01
-1.4411e+00  -4.0629e+00   2.5567e+01
-2.1065e+00  -3.7312e+00   2.5657e+01
-2.4746e+00  -3.6342e+00   2.5790e+01
 1.9388e+00  -3.6320e+00   2.5516e+01
 2.6238e+00  -3.3985e+00   2.5688e+01
 3.1466e+00  -3.0451e+00   2.5716e+01
 3.5721e+00  -2.7275e+00   2.5784e+01
-3.5178e+00  -2.6135e+00   2.5544e+01
-4.0324e+00  -2.0267e+00   2.5600e+01
-4.2367e+00  -1.7309e+00   2.5559e+01
-3.7654e-01  -4.5112e+00   2.5381e+01
-7.9095e-01  -4.3885e+00   2.5454e+01
 9.6954e-01  -4.0662e+00   2.5348e+01
 4.1892e-01  -4.3822e+00   2.5303e+01
-2.9982e+00  -3.1846e+00   2.5582e+01
-6.7612e-02  -4.5242e+00   2.5355e+01
 4.5573e+00   6.1340e-02   2.7872e+01
-3.3489e-01   2.0239e+00   2.7618e+01
-1.5358e+00   2.2481e+00   2.7115e+01