 5.0612e+00   4.3188e-01  -7.8010e-01
 4.8659e+00   1.0343e+00  -8.1490e-01
 4.2024e+00   1.5638e+00  -7.8440e-01
 3.0142e+00   1.8795e+00  -8.9010e-01
 2.6506e+00  -3.1416e+00  -1.4217e+00
 2.9825e+00  -2.8941e+00  -1.3557e+00
 5.0651e-02   1.8612e+00  -1.0999e+00
 2.1420e+00   1.8943e+00  -1.1079e+00
 3.6181e+00   1.8564e+00  -1.1369e+00
 1.3695e+00  -3.7835e+00  -1.7941e+00
-3.1828e+00  -3.2112e+00  -1.6140e+00
-4.0756e+00  -2.3578e+00  -1.5504e+00
-4.7433e+00  -1.6190e+00  -1.6161e+00
 4.8808e+00  -3.7355e-01  -1.7717e+00
 5.0740e+00   6.0000e-02  -1.5094e+00
-6.1746e+00   6.6010e-01  -2.0162e+00
-5.8737e+00   6.7150e-01  -1.6174e+00
-5.4150e+00   9.0570e-01  -1.3773e+00
-4.8514e+00   1.2477e+00  -1.4771e+00
-4.2493e+00   1.3786e+00  -1.5065e+00
-3.3367e+00   1.5203e+00  -1.4248e+00
-2.5066e+00   1.7000e+00  -1.4881e+00
-6.8074e-01   1.8447e+00  -1.3073e+00
 1.2358e+00   1.9145e+00  -1.3856e+00
-2.1293e+00  -3.6693e+00  -1.9440e+00
-1.0754e+00  -3.9789e+00  -2.1082e+00
 2.8903e-01  -4.0340e+00  -2.1084e+00
 7.8622e-01  -3.8858e+00  -2.1238e+00
-5.2219e+00  -9.6051e-01  -1.9917e+00
-5.8110e+00  -1.8270e-02  -2.1490e+00
-6.1604e+00   5.2010e-01  -2.2498e+00